Day 3: Data Wrangling - Intro to R
…
penguins[, c("species", "island", "body_mass_g", "year")]

In this exercise we explored the use of bracket notation for selecting variables.

We are able to perform the same selection using dplyr::select().

Exercise 1: 
Use the dplyr::select() function to keep only the species, island, body_mass_g, and year variables in our penguins data.

Click for Answers

penguins %>%
    dplyr::select(species, island, body_mass_g, year)

## # A tibble: 344 × 4
##    species island    body_mass_g  year
##    <fct>   <fct>           <int> <int>
##  1 Adelie  Torgersen        3750  2007
##  2 Adelie  Torgersen        3800  2007
##  3 Adelie  Torgersen        3250  2007
##  4 Adelie  Torgersen          NA  2007
##  5 Adelie  Torgersen        3450  2007
##  6 Adelie  Torgersen        3650  2007
##  7 Adelie  Torgersen        3625  2007
##  8 Adelie  Torgersen        4675  2007
##  9 Adelie  Torgersen        3475  2007
## 10 Adelie  Torgersen        4250  2007
## # ℹ 334 more rows

Select a range of columns

We can also use dplyr::select() to keep a range of columns. For example, we may be interested in keeping the first 4 columns in this data: species, island, bill_length_mm, bill_depth_mm.

Exercise 2: 
Select the range of columns from species to bill_depth_mm without writing out all column names.

Click for Answers

penguins %>%
    dplyr::select(species:bill_depth_mm)

## # A tibble: 344 × 4
##    species island    bill_length_mm bill_depth_mm
##    <fct>   <fct>              <dbl>         <dbl>
##  1 Adelie  Torgersen           39.1          18.7
##  2 Adelie  Torgersen           39.5          17.4
##  3 Adelie  Torgersen           40.3          18  
##  4 Adelie  Torgersen           NA            NA  
##  5 Adelie  Torgersen           36.7          19.3
##  6 Adelie  Torgersen           39.3          20.6
##  7 Adelie  Torgersen           38.9          17.8
##  8 Adelie  Torgersen           39.2          19.6
##  9 Adelie  Torgersen           34.1          18.1
## 10 Adelie  Torgersen           42            20.2
## # ℹ 334 more rows
…
We can also use the dplyr::select() function to exclude variables from our data. We use the minus sign (-) in front of a variable name to exclude it.

Exercise 3:
Exclude …

The year and island columns

The range of columns from bill_length_mm to body_mass_g

Click for Answers

penguins %>%
    dplyr::select(-year, -island)

## # A tibble: 344 × 6
##    species bill_length_mm bill_depth_mm flipper_length_mm body_mass_g sex   
##    <fct>            <dbl>         <dbl>             <int>       <int> <fct> 
##  1 Adelie            39.1          18.7               181        3750 male  
##  2 Adelie            39.5          17.4               186        3800 female
##  3 Adelie            40.3          18                 195        3250 female
##  4 Adelie            NA            NA                  NA          NA <NA>  
##  5 Adelie            36.7          19.3               193        3450 female
##  6 Adelie            39.3          20.6               190        3650 male  
##  7 Adelie            38.9          17.8               181        3625 female
##  8 Adelie            39.2          19.6               195        4675 male  
##  9 Adelie            34.1          18.1               193        3475 <NA>  
## 10 Adelie            42            20.2               190        4250 <NA>  
## # ℹ 334 more rows

penguins %>%
    dplyr::select(-(bill_length_mm:body_mass_g))

## # A tibble: 344 × 4
##    species island    sex     year
##    <fct>   <fct>     <fct>  <int>
##  1 Adelie  Torgersen male    2007
##  2 Adelie  Torgersen female  2007
##  3 Adelie  Torgersen female  2007
##  4 Adelie  Torgersen <NA>    2007
##  5 Adelie  Torgersen female  2007
##  6 Adelie  Torgersen male    2007
##  7 Adelie  Torgersen female  2007
##  8 Adelie  Torgersen male    2007
##  9 Adelie  Torgersen <NA>    2007
## 10 Adelie  Torgersen <NA>    2007
## # ℹ 334 more rows

More advanced selection with {tidyselect}

dplyr::select() is actually incredibly powerful when combined with a package called tidyselect. We won’t focus too much on the details of the tidyselect package but it is great if you are working with strings. Think of these functions as “helper functions” that you can use inside dplyr::select().

See some examples below:

# choose only columns containing an underscore
penguins %>%
    select(contains("_"))

## # A tibble: 344 × 4
##    bill_length_mm bill_depth_mm flipper_length_mm body_mass_g
##             <dbl>         <dbl>             <int>       <int>
##  1           39.1          18.7               181        3750
##  2           39.5          17.4               186        3800
##  3           40.3          18                 195        3250
##  4           NA            NA                  NA          NA
##  5           36.7          19.3               193        3450
##  6           39.3          20.6               190        3650
##  7           38.9          17.8               181        3625
##  8           39.2          19.6               195        4675
##  9           34.1          18.1               193        3475
## 10           42            20.2               190        4250
## # ℹ 334 more rows

# choose only columns beginning with 'b'
penguins %>%
    select(starts_with("b"))

## # A tibble: 344 × 3
##    bill_length_mm bill_depth_mm body_mass_g
##             <dbl>         <dbl>       <int>
##  1           39.1          18.7        3750
##  2           39.5          17.4        3800
##  3           40.3          18          3250
##  4           NA            NA            NA
##  5           36.7          19.3        3450
##  6           39.3          20.6        3650
##  7           38.9          17.8        3625
##  8           39.2          19.6        4675
##  9           34.1          18.1        3475
## 10           42            20.2        4250
## # ℹ 334 more rows

# choose only columns ending with 'mm'
penguins %>%
    select(ends_with("mm"))

## # A tibble: 344 × 3
##    bill_length_mm bill_depth_mm flipper_length_mm
##             <dbl>         <dbl>             <int>
##  1           39.1          18.7               181
##  2           39.5          17.4               186
##  3           40.3          18                 195
##  4           NA            NA                  NA
##  5           36.7          19.3               193
##  6           39.3          20.6               190
##  7           38.9          17.8               181
##  8           39.2          19.6               195
##  9           34.1          18.1               193
## 10           42            20.2               190
## # ℹ 334 more rows
…
penguins[penguins$species == "Chinstrap", ]

# Note that we need a `==` instead of a `=`
# = assignment, == evaluation 

Exercise 4:
Use dplyr::filter() to keep only rows where species is Chinstrap.

Click for Answers

penguins %>%
    dplyr::filter(species == "Chinstrap")

## # A tibble: 68 × 8
##    species   island bill_length_mm bill_depth_mm flipper_length_mm body_mass_g
##    <fct>     <fct>           <dbl>         <dbl>             <int>       <int>
##  1 Chinstrap Dream            46.5          17.9               192        3500
##  2 Chinstrap Dream            50            19.5               196        3900
##  3 Chinstrap Dream            51.3          19.2               193        3650
##  4 Chinstrap Dream            45.4          18.7               188        3525
##  5 Chinstrap Dream            52.7          19.8               197        3725
##  6 Chinstrap Dream            45.2          17.8               198        3950
##  7 Chinstrap Dream            46.1          18.2               178        3250
##  8 Chinstrap Dream            51.3          18.2               197        3750
##  9 Chinstrap Dream            46            18.9               195        4150
## 10 Chinstrap Dream            51.3          19.9               198        3700
## # ℹ 58 more rows
## # ℹ 2 more variables: sex <fct>, year <int>
…
The & operator is the most commonly used. So, if you just separate the logical conditions by a comma, dplyr::filter() will perform the & operation by default.

Exercise 5:
Use dplyr::filter() to…

Keep only rows where species is “Gentoo” and island is “Biscoe”.

Click for Answer

# there are two possible solutions here:
penguins %>%
    dplyr::filter(island == "Biscoe" & species == "Gentoo")

## # A tibble: 124 × 8
##    species island bill_length_mm bill_depth_mm flipper_length_mm body_mass_g
##    <fct>   <fct>           <dbl>         <dbl>             <int>       <int>
##  1 Gentoo  Biscoe           46.1          13.2               211        4500
##  2 Gentoo  Biscoe           50            16.3               230        5700
##  3 Gentoo  Biscoe           48.7          14.1               210        4450
##  4 Gentoo  Biscoe           50            15.2               218        5700
##  5 Gentoo  Biscoe           47.6          14.5               215        5400
##  6 Gentoo  Biscoe           46.5          13.5               210        4550
##  7 Gentoo  Biscoe           45.4          14.6               211        4800
##  8 Gentoo  Biscoe           46.7          15.3               219        5200
##  9 Gentoo  Biscoe           43.3          13.4               209        4400
## 10 Gentoo  Biscoe           46.8          15.4               215        5150
## # ℹ 114 more rows
## # ℹ 2 more variables: sex <fct>, year <int>

penguins %>%
    dplyr::filter(island == "Biscoe", species == "Gentoo")

## # A tibble: 124 × 8
##    species island bill_length_mm bill_depth_mm flipper_length_mm body_mass_g
##    <fct>   <fct>           <dbl>         <dbl>             <int>       <int>
##  1 Gentoo  Biscoe           46.1          13.2               211        4500
##  2 Gentoo  Biscoe           50            16.3               230        5700
##  3 Gentoo  Biscoe           48.7          14.1               210        4450
##  4 Gentoo  Biscoe           50            15.2               218        5700
##  5 Gentoo  Biscoe           47.6          14.5               215        5400
##  6 Gentoo  Biscoe           46.5          13.5               210        4550
##  7 Gentoo  Biscoe           45.4          14.6               211        4800
##  8 Gentoo  Biscoe           46.7          15.3               219        5200
##  9 Gentoo  Biscoe           43.3          13.4               209        4400
## 10 Gentoo  Biscoe           46.8          15.4               215        5150
## # ℹ 114 more rows
## # ℹ 2 more variables: sex <fct>, year <int>

Keep only rows where species is “Adelie” or “Gentoo”

Click for Answers

penguins %>%
    dplyr::filter(species == "Adelie" | species == "Gentoo")

## # A tibble: 276 × 8
##    species island    bill_length_mm bill_depth_mm flipper_length_mm body_mass_g
##    <fct>   <fct>              <dbl>         <dbl>             <int>       <int>
##  1 Adelie  Torgersen           39.1          18.7               181        3750
##  2 Adelie  Torgersen           39.5          17.4               186        3800
##  3 Adelie  Torgersen           40.3          18                 195        3250
##  4 Adelie  Torgersen           NA            NA                  NA          NA
##  5 Adelie  Torgersen           36.7          19.3               193        3450
##  6 Adelie  Torgersen           39.3          20.6               190        3650
##  7 Adelie  Torgersen           38.9          17.8               181        3625
##  8 Adelie  Torgersen           39.2          19.6               195        4675
##  9 Adelie  Torgersen           34.1          18.1               193        3475
## 10 Adelie  Torgersen           42            20.2               190        4250
## # ℹ 266 more rows
## # ℹ 2 more variables: sex <fct>, year <int>

# Another way to write this is using the %in% operator
penguins %>%
    dplyr::filter(species %in% c("Chinstrap", "Gentoo"))

## # A tibble: 192 × 8
##    species island bill_length_mm bill_depth_mm flipper_length_mm body_mass_g
##    <fct>   <fct>           <dbl>         <dbl>             <int>       <int>
##  1 Gentoo  Biscoe           46.1          13.2               211        4500
##  2 Gentoo  Biscoe           50            16.3               230        5700
##  3 Gentoo  Biscoe           48.7          14.1               210        4450
##  4 Gentoo  Biscoe           50            15.2               218        5700
##  5 Gentoo  Biscoe           47.6          14.5               215        5400
##  6 Gentoo  Biscoe           46.5          13.5               210        4550
##  7 Gentoo  Biscoe           45.4          14.6               211        4800
##  8 Gentoo  Biscoe           46.7          15.3               219        5200
##  9 Gentoo  Biscoe           43.3          13.4               209        4400
## 10 Gentoo  Biscoe           46.8          15.4               215        5150
## # ℹ 182 more rows
## # ℹ 2 more variables: sex <fct>, year <int>

Keep only rows where sex is not “male”

Click for Answers

penguins %>%
    dplyr::filter(sex != "male")

## # A tibble: 165 × 8
##    species island    bill_length_mm bill_depth_mm flipper_length_mm body_mass_g
##    <fct>   <fct>              <dbl>         <dbl>             <int>       <int>
##  1 Adelie  Torgersen           39.5          17.4               186        3800
##  2 Adelie  Torgersen           40.3          18                 195        3250
##  3 Adelie  Torgersen           36.7          19.3               193        3450
##  4 Adelie  Torgersen           38.9          17.8               181        3625
##  5 Adelie  Torgersen           41.1          17.6               182        3200
##  6 Adelie  Torgersen           36.6          17.8               185        3700
##  7 Adelie  Torgersen           38.7          19                 195        3450
##  8 Adelie  Torgersen           34.4          18.4               184        3325
##  9 Adelie  Biscoe              37.8          18.3               174        3400
## 10 Adelie  Biscoe              35.9          19.2               189        3800
## # ℹ 155 more rows
## # ℹ 2 more variables: sex <fct>, year <int>
…
Above we discussed that pipes are particularly useful when applying multiple functions to a data set. Let’s try an example.

Exercise 6:

Using pipes, subset the penguins data to include penguins found on all islands except “Dream”. 
Then display only the island column and those relating to their bill.

Click for Answers

penguins %>%
    dplyr::filter(island != "Dream") %>%
    dplyr::select(island, starts_with("bill"))

## # A tibble: 220 × 3
##    island    bill_length_mm bill_depth_mm
##    <fct>              <dbl>         <dbl>
##  1 Torgersen           39.1          18.7
##  2 Torgersen           39.5          17.4
##  3 Torgersen           40.3          18  
##  4 Torgersen           NA            NA  
##  5 Torgersen           36.7          19.3
##  6 Torgersen           39.3          20.6
##  7 Torgersen           38.9          17.8
##  8 Torgersen           39.2          19.6
##  9 Torgersen           34.1          18.1
## 10 Torgersen           42            20.2
## # ℹ 210 more rows
…
As the function name implies, you can use dplyr::rename() to rename columns using the syntax new_name = current_name

penguins %>%
    dplyr::rename(Species = species)

## # A tibble: 344 × 8
##    Species island    bill_length_mm bill_depth_mm flipper_length_mm body_mass_g
##    <fct>   <fct>              <dbl>         <dbl>             <int>       <int>
##  1 Adelie  Torgersen           39.1          18.7               181        3750
##  2 Adelie  Torgersen           39.5          17.4               186        3800
##  3 Adelie  Torgersen           40.3          18                 195        3250
##  4 Adelie  Torgersen           NA            NA                  NA          NA
##  5 Adelie  Torgersen           36.7          19.3               193        3450
##  6 Adelie  Torgersen           39.3          20.6               190        3650
##  7 Adelie  Torgersen           38.9          17.8               181        3625
##  8 Adelie  Torgersen           39.2          19.6               195        4675
##  9 Adelie  Torgersen           34.1          18.1               193        3475
## 10 Adelie  Torgersen           42            20.2               190        4250
## # ℹ 334 more rows
## # ℹ 2 more variables: sex <fct>, year <int>

It is also worth noting that you can rename a column when using dplyr::select():

penguins %>%
    dplyr::select(Species = species)

## # A tibble: 344 × 1
##    Species
##    <fct>  
##  1 Adelie 
##  2 Adelie 
##  3 Adelie 
##  4 Adelie 
##  5 Adelie 
##  6 Adelie 
##  7 Adelie 
##  8 Adelie 
##  9 Adelie 
## 10 Adelie 
## # ℹ 334 more rows

However, notice that the resulting data frame only contains the “Species” column. dplyr::rename() is useful if you want to rename a column but leave all else intact.

Exercise 7:

Rename the species column to species_identified

Click for Answers

penguins %>%
    dplyr::rename(species_identified = species)

## # A tibble: 344 × 8
##    species_identified island    bill_length_mm bill_depth_mm flipper_length_mm
##    <fct>              <fct>              <dbl>         <dbl>             <int>
##  1 Adelie             Torgersen           39.1          18.7               181
##  2 Adelie             Torgersen           39.5          17.4               186
##  3 Adelie             Torgersen           40.3          18                 195
##  4 Adelie             Torgersen           NA            NA                  NA
##  5 Adelie             Torgersen           36.7          19.3               193
##  6 Adelie             Torgersen           39.3          20.6               190
##  7 Adelie             Torgersen           38.9          17.8               181
##  8 Adelie             Torgersen           39.2          19.6               195
##  9 Adelie             Torgersen           34.1          18.1               193
## 10 Adelie             Torgersen           42            20.2               190
## # ℹ 334 more rows
## # ℹ 3 more variables: body_mass_g <int>, sex <fct>, year <int>
…
Typically, the variables we collect as raw data are not enough for all the questions we want to ask during an analysis. Oftentimes, we want to create new columns based on the values in existing columns (like performing unit conversions or finding ratios). For this we can use dplyr::mutate().

For example, we might want the flipper length of penguins in cm instead of mm:

penguins %>%
    dplyr::mutate(flipper_length_cm = flipper_length_mm/10)

## # A tibble: 344 × 9
##    species island    bill_length_mm bill_depth_mm flipper_length_mm body_mass_g
##    <fct>   <fct>              <dbl>         <dbl>             <int>       <int>
##  1 Adelie  Torgersen           39.1          18.7               181        3750
##  2 Adelie  Torgersen           39.5          17.4               186        3800
##  3 Adelie  Torgersen           40.3          18                 195        3250
##  4 Adelie  Torgersen           NA            NA                  NA          NA
##  5 Adelie  Torgersen           36.7          19.3               193        3450
##  6 Adelie  Torgersen           39.3          20.6               190        3650
##  7 Adelie  Torgersen           38.9          17.8               181        3625
##  8 Adelie  Torgersen           39.2          19.6               195        4675
##  9 Adelie  Torgersen           34.1          18.1               193        3475
## 10 Adelie  Torgersen           42            20.2               190        4250
## # ℹ 334 more rows
## # ℹ 3 more variables: sex <fct>, year <int>, flipper_length_cm <dbl>
…
