…
> **Exercise 9**
>    
> Select the columns `species`, `island`, `body_mass_g`, and `year`. Save this as a variable named `penguins_subset`.
>
> <details>
> <summary>Click for Answer</summary>
> 
> ```r
> penguins_subset <- penguins[, c("species", "island", "body_mass_g", "year")]
> penguins_subset
> ```
> 
> ```
> ## # A tibble: 342 × 4
> ##    species island    body_mass_g  year
> ##    <chr>   <chr>           <dbl> <dbl>
> ##  1 Adelie  Torgersen        3750  2007
> ##  2 Adelie  Torgersen        3800  2007
> ##  3 Adelie  Torgersen        3250  2007
> ##  4 Adelie  Torgersen        3450  2007
> ##  5 Adelie  Torgersen        3650  2007
> ##  6 Adelie  Torgersen        3625  2007
> ##  7 Adelie  Torgersen        4675  2007
> ##  8 Adelie  Torgersen        3475  2007
> ##  9 Adelie  Torgersen        4250  2007
> ## 10 Adelie  Torgersen        3300  2007
> ## # ℹ 332 more rows
…
> </details>
>  
>  
> Create a new column in `penguins_subset` that takes `body_mass_g` and generates `body_mass_kg`
>  
> <details>
> <summary>Click for Answer</summary>
> 
> ```r
> penguins_subset$body_mass_kg <- penguins$body_mass_g/100
> penguins_subset
> ```
> 
> ```
> ## # A tibble: 342 × 5
> ##    species island    body_mass_g  year body_mass_kg
> ##    <chr>   <chr>           <dbl> <dbl>        <dbl>
> ##  1 Adelie  Torgersen        3750  2007         37.5
> ##  2 Adelie  Torgersen        3800  2007         38  
> ##  3 Adelie  Torgersen        3250  2007         32.5
> ##  4 Adelie  Torgersen        3450  2007         34.5
> ##  5 Adelie  Torgersen        3650  2007         36.5
> ##  6 Adelie  Torgersen        3625  2007         36.2
> ##  7 Adelie  Torgersen        4675  2007         46.8
> ##  8 Adelie  Torgersen        3475  2007         34.8
> ##  9 Adelie  Torgersen        4250  2007         42.5
> ## 10 Adelie  Torgersen        3300  2007         33  
> ## # ℹ 332 more rows
…
> </details>
>  
>  
> Filter `penguins_subset` to include data only from the *year 2009*
>  
> <details>
> <summary>Click for Answer</summary>
> 
> ```r
> penguins_subset <- penguins_subset[penguins_subset$year == 2009, ]
> penguins_subset
> ```
> 
> ```
> ## # A tibble: 119 × 5
> ##    species island body_mass_g  year body_mass_kg
> ##    <chr>   <chr>        <dbl> <dbl>        <dbl>
> ##  1 Adelie  Biscoe        3725  2009         37.2
> ##  2 Adelie  Biscoe        4725  2009         47.2
> ##  3 Adelie  Biscoe        3075  2009         30.8
> ##  4 Adelie  Biscoe        4250  2009         42.5
> ##  5 Adelie  Biscoe        2925  2009         29.2
> ##  6 Adelie  Biscoe        3550  2009         35.5
> ##  7 Adelie  Biscoe        3750  2009         37.5
> ##  8 Adelie  Biscoe        3900  2009         39  
> ##  9 Adelie  Biscoe        3175  2009         31.8
> ## 10 Adelie  Biscoe        4775  2009         47.8
> ## # ℹ 109 more rows
…
